scRNA-seq analysis via Dimensionality reduction
…
# Gene statistics
print(as_tibble(rowData(data_zeisel), rownames="gene_id"))

## # A tibble: 19,972 x 11
##    gene_id feature_symbol is_feature_cont is_feature_cont mean_counts
##    <chr>   <chr>          <lgl>            <lgl>                  <dbl>
##  1 Tspan12 Tspan12        FALSE            FALSE                 0.279 
##  2 Tshz1   Tshz1          FALSE            FALSE                 0.424 
##  3 Fnbp1l  Fnbp1l         FALSE            FALSE                 1.04  
##  4 Adamts Adamts15       FALSE            FALSE                 0.0446
##  5 Cldn12  Cldn12         FALSE            FALSE                 0.379 
##  6 Rxfp1   Rxfp1          FALSE            FALSE                 0.0559
##  7 231004 2310042E22Rik  FALSE            FALSE                 0.105 
##  8 Sema3c  Sema3c         FALSE            FALSE                 1.06  
##  9 Jam2    Jam2           FALSE            FALSE                 0.274 
## 10 Apbb1ip Apbb1ip        FALSE            FALSE                 0.0539
## #  with 19,962 more rows, and 6 more variables: log10_mean_counts <dbl>,
## #   rank_counts <dbl>, n_cells_counts <int>, pct_dropout_counts <dbl>,
## #   total_counts <int>, log10_total_counts <dbl>

# Cell statistics
print(as_tibble(colData(data_zeisel), rownames="cell_id"))

## # A tibble: 3,005 x 31
##    cell_id clust_id cell_type1 total_features log10_total_fea total_counts
##    <chr>   <fct>    <chr>               <int>            <dbl>        <int>
##  1 X1      1        interneur           4848             3.69        21580
##  2 X1.1    1        interneur           4685             3.67        21748
##  3 X1.2    1        interneur           6028             3.78        31642
##  4 X1.3    1        interneur           5824             3.77        32914
##  5 X1.4    1        interneur           4701             3.67        21530
##  6 X1.5    1        interneur           5408             3.73        24797
##  7 X1.6    1        interneur           6244             3.80        31405
##  8 X1.7    1        interneur           5734             3.76        20385
##  9 X1.8    1        interneur           5259             3.72        23021
## 10 X1.9    1        interneur           5503             3.74        24183
## #  with 2,995 more rows, and 25 more variables: log10_total_counts <dbl>,
## #   pct_counts_top_50_features <dbl>, pct_counts_top_100_features <dbl>,
## #   pct_counts_top_200_features <dbl>, pct_counts_top_500_features <dbl>,
## #   total_features_endogenous <int>,
## #   log10_total_features_endogenous <dbl>, total_counts_endogenous <int>,
## #   log10_total_counts_endogenous <dbl>, pct_counts_endogenous <dbl>,
## #   pct_counts_top_50_features_endogenous <dbl>,
## #   pct_counts_top_100_features_endogenous <dbl>,
## #   pct_counts_top_200_features_endogenous <dbl>,
…
